\relax 
\providecommand\babel@aux[2]{}
\@nameuse{bbl@beforestart}
\catcode `"\active 
\catcode `<\active 
\catcode `>\active 
\@nameuse{es@quoting}
\providecommand\hyper@newdestlabel[2]{}
\providecommand\HyField@AuxAddToFields[1]{}
\providecommand\HyField@AuxAddToCoFields[2]{}
\babel@aux{spanish}{}
\@writefile{lof}{\contentsline {figure}{\numberline {1}{\ignorespaces Google apps Script}}{1}{figure.1}\protected@file@percent }
\newlabel{fig:image1}{{1}{1}{Google apps Script}{figure.1}{}}
\@writefile{lof}{\contentsline {figure}{\numberline {2}{\ignorespaces Formularios de Google}}{2}{figure.2}\protected@file@percent }
\newlabel{fig:image2}{{2}{2}{Formularios de Google}{figure.2}{}}
\@writefile{lof}{\contentsline {figure}{\numberline {3}{\ignorespaces Calendario Google}}{2}{figure.3}\protected@file@percent }
\newlabel{fig:image3}{{3}{2}{Calendario Google}{figure.3}{}}
\@writefile{lof}{\contentsline {figure}{\numberline {4}{\ignorespaces Mensaje de Prueba}}{2}{figure.4}\protected@file@percent }
\newlabel{fig:image4}{{4}{2}{Mensaje de Prueba}{figure.4}{}}
\@writefile{lof}{\contentsline {figure}{\numberline {5}{\ignorespaces Google Sheets}}{3}{figure.5}\protected@file@percent }
\newlabel{fig:image5}{{5}{3}{Google Sheets}{figure.5}{}}
\gdef \@abspage@last{3}
